{
  "i": {"shape": "........iiii....", "width": 4, "color": "cyan"},
  "o": {"shape": ".....oo..oo.....", "width": 4, "color": "yellow"},
  "t": {"shape": ".t.ttt...", "width": 3, "color": "magenta"},
  "s": {"shape": ".ssss....", "width": 3, "color": "lime"},
  "z": {"shape": "zz..zz...", "width": 3, "color": "red"},
  "j": {"shape": "j..jjj...", "width": 3, "color": "blue"},
  "l": {"shape": "..llll...", "width": 3, "color": "orange"}
}
